Position,Amino acid,Probabilities
1,G,0.13304182887077332
2,T,0.3001095652580261
3,V,0.22930306196212769
4,N,0.06792663782835007
5,W,0.05531788244843483
6,S,0.015351226553320885
7,V,0.013923236168920994
8,E,0.013413854874670506
9,D,0.01854124292731285
10,I,0.01868763007223606
11,V,0.013077774085104465
12,K,0.0154954819008708
13,G,0.019873760640621185
14,I,0.01603218913078308
15,N,0.01329421903938055
16,S,0.020642749965190887
17,N,0.01669357344508171
18,N,0.10657621175050735
19,L,0.1311430037021637
20,E,0.4175724387168884
21,S,0.05816536024212837
22,Q,0.05200642719864845
23,L,0.5488855838775635
24,Q,0.3121509552001953
25,A,0.022997047752141953
26,T,0.23112131655216217
27,Q,0.7574466466903687
28,A,0.10588215291500092
29,A,0.14040762186050415
30,R,0.8532533049583435
31,K,0.6190735101699829
32,L,0.1772674173116684
33,L,0.7619504332542419
34,S,0.8970341682434082
35,R,0.673120379447937
36,E,0.8221686482429504
37,K,0.5282630920410156
38,Q,0.513279378414154
39,P,0.7830210328102112
40,P,0.12931619584560394
41,I,0.5469249486923218
42,D,0.35910770297050476
43,N,0.050466783344745636
44,I,0.01776263304054737
45,I,0.021198352798819542
46,R,0.02456710860133171
47,A,0.014254136942327023
48,G,0.013681961223483086
49,L,0.013718264177441597
50,I,0.01404837891459465
51,P,0.013110878877341747
52,K,0.013779706321656704
53,F,0.018961817026138306
54,V,0.013405606150627136
55,S,0.013774260878562927
56,F,0.039545465260744095
57,L,0.03095914237201214
58,G,0.016734786331653595
59,K,0.17142726480960846
60,T,0.07220222055912018
61,D,0.21145407855510712
62,C,0.3099142014980316
63,S,0.6378629207611084
64,P,0.7807504534721375
65,I,0.478444367647171
66,Q,0.22791807353496552
67,F,0.8683193922042847
68,E,0.7948967814445496
69,S,0.14805153012275696
70,A,0.49388962984085083
71,W,0.8964043259620667
72,A,0.5982469916343689
73,L,0.24049906432628632
74,T,0.9315154552459717
75,N,0.8976486325263977
76,I,0.43983617424964905
77,A,0.7547882199287415
78,S,0.946506917476654
79,G,0.8209986686706543
80,T,0.8300869464874268
81,S,0.8175587058067322
82,E,0.5071249604225159
83,Q,0.6819911599159241
84,T,0.8038758039474487
85,K,0.34471702575683594
86,A,0.12159743160009384
87,V,0.07051126658916473
88,V,0.019314182922244072
89,D,0.03564458712935448
90,G,0.014896765351295471
91,G,0.01332330983132124
92,A,0.01453552395105362
93,I,0.01387289073318243
94,P,0.013135578483343124
95,A,0.013462355360388756
96,F,0.022719042375683784
97,I,0.013743353076279163
98,S,0.013998053967952728
99,L,0.02782086469233036
100,L,0.027293214574456215
101,A,0.02683321014046669
102,S,0.1629100888967514
103,P,0.2530917823314667
104,H,0.6318351030349731
105,A,0.6270418763160706
106,H,0.9082122445106506
107,I,0.6936129927635193
108,S,0.2075904756784439
109,E,0.8660560250282288
110,Q,0.9099858403205872
111,A,0.17466406524181366
112,V,0.4890509843826294
113,W,0.9309878945350647
114,A,0.6672263145446777
115,L,0.23101356625556946
116,G,0.8973137140274048
117,N,0.9300796389579773
118,I,0.49593761563301086
119,A,0.6337389349937439
120,G,0.9266548752784729
121,D,0.863188624382019
122,G,0.7254944443702698
123,S,0.5488255023956299
124,A,0.24851568043231964
125,F,0.2990018129348755
126,R,0.6521192789077759
127,D,0.07295584678649902
128,L,0.02528737671673298
129,V,0.02395070716738701
130,I,0.014034626074135303
131,K,0.015075067058205605
132,H,0.0139179527759552
133,G,0.013313713483512402
134,A,0.014222410507500172
135,I,0.013830802403390408
136,D,0.013938315212726593
137,P,0.014794877730309963
138,L,0.02026245929300785
139,L,0.014110014773905277
140,A,0.016052430495619774
141,L,0.04192647337913513
142,L,0.01650458760559559
143,A,0.015858961269259453
144,V,0.02856718935072422
145,P,0.016552813351154327
146,D,0.019903363659977913
147,L,0.020828858017921448
148,S,0.053809650242328644
149,T,0.09813614934682846
150,L,0.23750121891498566
151,A,0.7072060704231262
152,C,0.7142093181610107
153,G,0.9312092065811157
154,Y,0.7749282717704773
155,L,0.32357078790664673
156,R,0.9139536023139954
157,N,0.9319677352905273
158,L,0.3057956099510193
159,T,0.5409616827964783
160,W,0.9549489617347717
161,T,0.8262957334518433
162,L,0.21674707531929016
163,S,0.8259040117263794
164,N,0.8743451237678528
165,L,0.20273898541927338
166,C,0.3982781171798706
167,R,0.9292623996734619
168,N,0.8062124252319336
169,K,0.8266916275024414
170,N,0.6227387189865112
171,P,0.2517125606536865
172,A,0.533940315246582
173,P,0.11500353366136551
174,P,0.022547567263245583
175,L,0.035342324525117874
176,D,0.014240773394703865
177,A,0.014423445798456669
178,V,0.022474709898233414
179,E,0.013653584755957127
180,Q,0.013551324605941772
181,I,0.014508843421936035
182,L,0.013670072890818119
183,P,0.013228543102741241
184,T,0.013665732927620411
185,L,0.015198489651083946
186,V,0.0131717873737216
187,R,0.014023320749402046
188,L,0.02050645463168621
189,L,0.01835562102496624
190,H,0.015965040773153305
191,H,0.03900402784347534
192,N,0.10891958326101303
193,D,0.4375353753566742
194,P,0.7017771601676941
195,E,0.9256836175918579
196,V,0.46878018975257874
197,L,0.21894651651382446
198,A,0.8776078820228577
199,D,0.9154775738716125
200,S,0.1468351185321808
201,C,0.5756818652153015
202,W,0.9236167669296265
203,A,0.5552747249603271
204,I,0.24373257160186768
205,S,0.8756706714630127
206,Y,0.892458438873291
207,L,0.3665452301502228
208,T,0.6196595430374146
209,D,0.9055899381637573
210,G,0.7334418296813965
211,P,0.6778348684310913
212,N,0.5871295928955078
213,E,0.11759156733751297
214,R,0.4139288663864136
215,I,0.46216562390327454
216,E,0.07150889188051224
217,M,0.025843610987067223
218,V,0.019602149724960327
219,V,0.014475272968411446
220,K,0.014792697504162788
221,K,0.013599537312984467
222,G,0.013232341036200523
223,V,0.013339703902602196
224,V,0.013498840853571892
225,P,0.013225439935922623
226,Q,0.013554123230278492
227,L,0.020240234211087227
228,V,0.013630693778395653
229,K,0.01460724975913763
230,L,0.030688108876347542
231,L,0.038394540548324585
232,G,0.021156592294573784
233,A,0.10266691446304321
234,T,0.22668375074863434
235,E,0.6291704773902893
236,L,0.8020227551460266
237,P,0.9334282875061035
238,I,0.6496984958648682
239,V,0.3600008189678192
240,T,0.9180662035942078
241,P,0.9133210182189941
242,A,0.2108658254146576
243,L,0.6293566226959229
244,R,0.9432754516601562
245,A,0.67344731092453
246,I,0.3304714262485504
247,G,0.907699465751648
248,N,0.8930127620697021
249,I,0.3805997967720032
250,V,0.7651864886283875
251,T,0.9228108525276184
252,G,0.7459455728530884
253,T,0.5116705298423767
254,D,0.6418548822402954
255,E,0.17557650804519653
256,Q,0.22256925702095032
257,T,0.5902351140975952
258,Q,0.08086041361093521
259,K,0.017064174637198448
260,V,0.020983539521694183
261,I,0.015618317760527134
262,D,0.015920136123895645
263,A,0.013753756880760193
264,G,0.013329454697668552
265,A,0.014427456073462963
266,L,0.014247226528823376
267,A,0.013319415971636772
268,V,0.014799386262893677
269,F,0.015049375593662262
270,P,0.013337720185518265
271,S,0.016876593232154846
272,L,0.08797214180231094
273,L,0.020580757409334183
274,T,0.02133147418498993
275,N,0.20681342482566833
276,P,0.21117252111434937
277,K,0.6893575191497803
278,T,0.6928890347480774
279,N,0.9282795786857605
280,I,0.7303199768066406
281,Q,0.2452240139245987
282,K,0.8725826144218445
283,E,0.9478482604026794
284,A,0.2564241886138916
285,T,0.5054162740707397
286,W,0.9418931007385254
287,T,0.7931222319602966
288,M,0.2662666440010071
289,S,0.8804590702056885
290,N,0.9241135120391846
291,I,0.4505448043346405
292,T,0.6471139788627625
293,A,0.9143792986869812
294,G,0.6532835364341736
295,R,0.5156065821647644
296,Q,0.3848063349723816
297,D,0.1339193433523178
298,Q,0.15643952786922455
299,I,0.17667359113693237
300,Q,0.035638418048620224
301,Q,0.016909336671233177
302,V,0.015368972904980183
303,V,0.01367511972784996
304,N,0.013988091610372066
305,H,0.013696864247322083
306,G,0.013213526457548141
307,L,0.01354251429438591
308,V,0.013430732302367687
309,P,0.013107316568493843
310,F,0.013341231271624565
311,L,0.01464393362402916
312,V,0.013100286945700645
313,G,0.013636655174195766
314,V,0.020813925191760063
315,L,0.022606175392866135
316,S,0.014224770478904247
317,K,0.027165407314896584
318,A,0.06657790392637253
319,D,0.6040067076683044
320,F,0.5941591262817383
321,K,0.8844920992851257
322,T,0.6320244669914246
323,Q,0.16284728050231934
324,K,0.8363216519355774
325,E,0.8970965147018433
326,A,0.17269012331962585
327,A,0.5047748684883118
328,W,0.9049573540687561
329,A,0.6418847441673279
330,I,0.2092105895280838
331,T,0.8217365741729736
332,N,0.8981541395187378
333,Y,0.43069764971733093
334,T,0.5471848845481873
335,S,0.8265589475631714
336,G,0.7010596990585327
337,G,0.24478602409362793
338,T,0.22023111581802368
339,V,0.10165107995271683
340,E,0.03136924281716347
341,Q,0.03121643140912056
342,I,0.06291119009256363
343,V,0.016828080639243126
344,Y,0.013384285382926464
345,L,0.013650056906044483
346,V,0.013230089098215103
347,H,0.013332213275134563
348,C,0.013373644091188908
349,G,0.013220231980085373
350,I,0.013479775749146938
351,I,0.013514446094632149
352,E,0.013991507701575756
353,P,0.013860373757779598
354,L,0.014725347980856895
355,M,0.013582383282482624
356,N,0.018003784120082855
357,L,0.06068388745188713
358,L,0.021642211824655533
359,S,0.06155646964907646
360,A,0.29636040329933167
361,K,0.32070425152778625
362,D,0.6383433938026428
363,T,0.3434329032897949
364,K,0.7866845726966858
365,I,0.6679235100746155
366,I,0.13750435411930084
367,Q,0.49260976910591125
368,V,0.824533224105835
369,I,0.20887374877929688
370,L,0.24397632479667664
371,D,0.7638270854949951
372,A,0.518301784992218
373,I,0.06788797676563263
374,S,0.3616870641708374
375,N,0.6596180200576782
376,I,0.09780843555927277
377,F,0.10427868366241455
378,Q,0.5591378211975098
379,A,0.14496222138404846
380,A,0.020491234958171844
381,E,0.08300678431987762
382,K,0.18630480766296387
383,L,0.02240738645195961
384,G,0.025068549439311028
385,E,0.019710052758455276
386,T,0.02755306102335453
387,E,0.01710543781518936
388,K,0.025583242997527122
389,L,0.019785715267062187
390,S,0.014070266857743263
391,I,0.014457440935075283
392,M,0.01414903812110424
393,I,0.013566647656261921
394,E,0.013514774851500988
395,E,0.013949645683169365
396,C,0.013491987250745296
397,G,0.013439207337796688
398,G,0.013440623879432678
399,L,0.013382116332650185
400,D,0.013603675179183483
401,K,0.01547257136553526
402,I,0.013598623685538769
403,E,0.013482610695064068
404,A,0.015174932777881622
405,L,0.015487216413021088
406,Q,0.01587732508778572
407,R,0.015292631462216377
408,H,0.048188336193561554
409,E,0.0535629577934742
410,N,0.15777727961540222
411,E,0.11668422073125839
412,S,0.26931002736091614
413,V,0.10133573412895203
414,Y,0.03566962480545044
415,K,0.12843652069568634
416,A,0.2312743365764618
417,S,0.023370016366243362
418,L,0.01997040957212448
419,N,0.12813355028629303
420,L,0.04722209274768829
421,I,0.014098669402301311
422,E,0.01817605271935463
423,K,0.039829377084970474
424,Y,0.021742260083556175
425,F,0.013401062227785587
426,S,0.01439104788005352
